<?xml version="1.0" encoding="UTF-8"?>
<svg width="512px" height="512px" viewBox="0 0 512 512" version="1.1" xmlns="http://www.w3.org/2000/svg" xmlns:xlink="http://www.w3.org/1999/xlink">
    <!-- Generator: Sketch 53 (72520) - https://sketchapp.com -->
    <title>Group 3</title>
    <desc>Created with Sketch.</desc>
    <g id="Page-1" stroke="none" stroke-width="1" fill="none" fill-rule="evenodd">
        <g id="Artboard-Copy-8" transform="translate(-280.000000, -284.000000)">
            <g id="Group-3" transform="translate(280.000000, 284.000000)">
                <g id="dollar" fill-rule="nonzero">
                    <path d="M257,0 C116.302,0 0,114.3 0,255 C0,395.7 116.302,512 257,512 C397.698,512 512,395.7 512,255 C512,114.3 397.698,0 257,0 Z" id="Path" fill="#F38A73"></path>
                    <path d="M512,255 C512,395.7 397.698,512 257,512 L257,0 C397.698,0 512,114.3 512,255 Z" id="Path" fill="#E9826C"></path>
                    <path d="M257,60 C149.598,60 60,147.599 60,255 C60,362.401 149.598,452 257,452 C364.402,452 452,362.401 452,255 C452,147.599 364.402,60 257,60 Z" id="Path" fill="#FDA577"></path>
                    <path d="M452,255 C452,362.401 364.402,452 257,452 L257,60 C364.402,60 452,147.599 452,255 Z" id="Path" fill="#FA976E"></path>
                </g>
                <g id="Group-3-Copy" opacity="0.403087798" transform="translate(119.000000, 137.000000)" fill="#FFFFFF">
                    <path d="M178.437848,245.176171 L160.528068,254.971676 C145.223446,263.342325 126.662649,263.131434 111.552172,254.415202 L87.0091495,240.25796 C76.7230075,234.324567 70.4410904,223.300553 70.5799094,211.426607 L70.5799094,211.426607 C70.6525792,205.210771 75.7504201,200.230751 81.9662558,200.303421 C83.8958008,200.325979 85.7871424,200.844236 87.4586654,201.808427 L119.048079,220.030264 C129.392415,225.997226 142.121605,226.046272 152.511615,220.159201 L152.511615,220.159201 C162.885209,214.281432 169.326613,203.307856 169.401837,191.385023 L169.414519,189.374883 C169.451483,183.516106 164.731971,178.736664 158.873194,178.699699 C156.934985,178.687471 155.030466,179.206484 153.366443,180.200381 L153.366443,180.200381 C143.381976,186.163959 130.955093,186.269889 120.870414,180.477387 L25.0964973,125.466154 C9.21900858,116.346341 -0.403602395,99.2772476 0.0129999749,80.9717271 L0.474168823,60.7079543 C0.871524201,43.2481472 10.3500731,27.2609213 25.4780077,18.5346191 L49.9777451,4.40234548 C60.2726058,-1.53607694 72.969614,-1.46195765 83.194444,4.59624927 L83.194444,4.59624927 C88.5387736,7.76276203 90.3042429,14.6621629 87.1377302,20.0064925 C86.1524794,21.6693643 84.755341,23.0502857 83.0810801,24.0160558 L51.4913947,42.2380502 C41.1558873,48.199919 34.7512397,59.1900106 34.6591697,71.1214027 L34.6591697,71.1214027 C34.5672292,83.0360102 40.8499368,94.0912889 51.1331892,100.109681 L52.7080602,101.031393 C57.9512351,104.100021 64.6892832,102.337203 67.7579118,97.0940286 C68.7335568,95.4270047 69.2530495,93.5324675 69.2641423,91.6009581 L69.2641423,91.6009581 C69.3317037,79.8370582 75.7638952,69.0320029 86.0729651,63.3648181 L112.131047,49.0399595 C112.445335,48.867187 112.757754,48.691038 113.068251,48.5115431 L181.738137,8.81421197 C197.557796,-0.330964685 217.106303,-0.118048022 232.723019,9.36952451 L250.148902,19.9562138 C265.075108,29.0242828 274.188011,45.2234465 274.188011,62.6883111 L274.188011,90.9197223 C274.188011,102.802592 267.773369,113.759925 257.411585,119.5768 L257.411585,119.5768 C251.987456,122.621785 245.121883,120.693108 242.076897,115.268978 C241.131631,113.585146 240.63516,111.686561 240.63516,109.755545 L240.63516,73.3505699 C240.63516,61.4108986 234.311245,50.3644017 224.015154,44.3190516 L224.015154,44.3190516 C213.731662,38.2810992 201.007146,38.1919831 190.640093,44.0853095 L188.56593,45.264403 C183.449304,48.1730354 181.659372,54.6787925 184.568004,59.7954182 C185.494545,61.4253118 186.834681,62.7819228 188.453133,63.7283076 L188.453133,63.7283076 C198.335114,69.506766 204.410375,80.0934183 204.413661,91.5408685 L204.445167,201.294389 C204.450415,219.576294 194.477452,236.403533 178.437848,245.176171 Z M153.404015,139.083348 L153.547436,139.002321 C163.209116,133.543872 169.175871,123.298965 169.156254,112.202013 L169.156254,112.202013 C169.136581,101.072944 163.22502,90.7864632 153.619155,85.1665033 L153.538437,85.1192789 C143.90008,79.4803089 131.979478,79.4368822 122.300292,85.0054787 L121.639851,85.3854412 C112.080479,90.8851065 106.188011,101.073194 106.188011,112.101699 L106.188011,112.101699 C106.188011,123.129749 112.081774,133.316951 121.642213,138.813849 L121.904083,138.964415 C131.645871,144.565582 143.620209,144.610793 153.404015,139.083348 Z" id="Shape"></path>
                </g>
            </g>
        </g>
    </g>
</svg>